…
effects_evaluations
```

```
## # A tibble: 882 x 33
##    paper_id evaluation_id effect_id gender age_group months_of_delay
##    <chr>    <chr>             <dbl> <fct>  <chr>               <dbl>
##  1 Acero 2~ Acero 2009            1 pooled <NA>                    1
##  2 Acero 2~ Acero 2009            2 pooled <NA>                    2
##  3 Acero 2~ Acero 2009            3 pooled <NA>                    3
##  4 Acero 2~ Acero 2009            4 pooled <NA>                    4
##  5 Acero 2~ Acero 2009            5 pooled <NA>                    1
##  6 Acero 2~ Acero 2009            6 pooled <NA>                    2
##  7 Acero 2~ Acero 2009            7 pooled <NA>                    3
##  8 Acero 2~ Acero 2009            8 pooled <NA>                    4
##  9 Acero 2~ Acero 2009            9 pooled <NA>                    1
## 10 Acero 2~ Acero 2009           10 pooled <NA>                    2
## # ... with 872 more rows, and 27 more variables: outcome_type <dbl>,
## #   n_total <dbl>, nt <dbl>, nc <dbl>, beta <dbl>, se <dbl>, t <dbl>,
## #   p_value <dbl>, se_calculated <dbl>, smd_treated_control <dbl>,
## #   vd <dbl>, target_age <chr>, skills <fct>, training <fct>,
## #   jovenes <fct>, implementer <fct>, where_internship <fct>,
## #   where_class <fct>, length_class_hours <dbl>,
## #   length_class_months <dbl>, length_internship_hours <dbl>,
## #   length_internship_months <dbl>, lac <chr>, age_min <dbl>,
## #   age_max <dbl>, age_min_target <dbl>, age_max_target <dbl>
```
…
